{
  "name": "liger1978-mattermost",
  "version": "1.4.0",
  "author": "Richard Grainger",
  "summary": "Installs and configures Mattermost.",
  "license": "Apache-2.0",
  "source": "https://github.com/liger1978/mattermost",
  "project_page": "https://github.com/liger1978/mattermost",
  "issues_url": "https://github.com/liger1978/mattermost/issues",
  "dependencies": [
    {"name":"puppetlabs-stdlib","version_requirement":">= 4.2.0 <5.0.0"},
    {"name":"nanliu-staging","version_requirement":">= 1.0.0 <2.0.0"}
  ],
  "operatingsystem_support": [
    {
      "operatingsystem": "RedHat",
      "operatingsystemrelease": [
        "6",
        "7"
      ]
    },
    {
      "operatingsystem": "CentOS",
      "operatingsystemrelease": [
        "6",
        "7"
      ]
    },
    {
      "operatingsystem": "OracleLinux",
      "operatingsystemrelease": [
        "6",
        "7"
      ]
    },
    {
      "operatingsystem": "Scientific",
      "operatingsystemrelease": [
        "6",
        "7"
      ]
    },
    {
      "operatingsystem": "Debian",
      "operatingsystemrelease": [
        "7",
        "8"
      ]
    },
    {
      "operatingsystem": "Ubuntu",
      "operatingsystemrelease": [
        "12.04",
        "12.10",
        "13.04",
        "13.10",
        "14.04",
        "14.10",
        "15.04",
        "15.10",
        "16.04"
      ]
    },
    {
      "operatingsystem": "SLES",
      "operatingsystemrelease": [
        "12"
      ]
    }
  ],
  "requirements": [
    {
      "name": "puppet",
      "version_requirement": ">=3.0.0 <5.0.0"
    }
  ]
}
